EESchema Schematic File Version 2
LIBS:power
LIBS:device
LIBS:transistors
LIBS:conn
LIBS:linear
LIBS:regul
LIBS:74xx
LIBS:cmos4000
LIBS:adc-dac
LIBS:memory
LIBS:xilinx
LIBS:microcontrollers
LIBS:dsp
LIBS:microchip
LIBS:analog_switches
LIBS:motorola
LIBS:texas
LIBS:intel
LIBS:audio
LIBS:interface
LIBS:digital-audio
LIBS:philips
LIBS:display
LIBS:cypress
LIBS:siliconi
LIBS:opto
LIBS:atmel
LIBS:contrib
LIBS:valves
LIBS:XPT2046
LIBS:NCS2211
LIBS:SSM3J328RLF
LIBS:IP4220CZ6
LIBS:LD3985M3xR
LIBS:RT9728Bx
LIBS:DIN_6
LIBS:5INCH_DPI_LCD
LIBS:RT4533
LIBS:STM32F767VxTx
LIBS:switches
LIBS:Mounting_Hole
LIBS:diy-vt100-cache
EELAYER 25 0
EELAYER END
$Descr A4 11693 8268
encoding utf-8
Sheet 6 11
Title "diy-VT100"
Date ""
Rev "0.4"
Comp "Mad Resistor"
Comment1 "https://www.madresistor.com/diy-vt100"
Comment2 "Copyright (C) 2016, 2017 Mad Resistor"
Comment3 ""
Comment4 ""
$EndDescr
$Comp
L CONN_01X40 P6
U 1 1 58B075FA
P 10900 3100
F 0 "P6" H 10900 5150 50  0000 C CNN
F 1 "DPI_LCD_ZIF" V 11000 3100 50  0000 C CNN
F 2 "custom:FPC_40" H 10900 3100 50  0001 C CNN
F 3 "" H 10900 3100 50  0000 C CNN
	1    10900 3100
	1    0    0    1   
$EndComp
Text Label 10250 1150 0    60   ~ 0
LED-
Text Label 10250 1250 0    60   ~ 0
LED+
Text Label 10250 4750 0    60   ~ 0
XR
Text Label 10250 4850 0    60   ~ 0
YD
Text Label 10250 4950 0    60   ~ 0
XL
Text Label 10250 5050 0    60   ~ 0
YU
$Comp
L C C31
U 1 1 58B07BE6
P 1200 5100
F 0 "C31" H 1225 5200 50  0000 L CNN
F 1 "2.2uF/16V/X5R" H 950 5000 50  0000 L CNN
F 2 "Capacitors_SMD:C_0805" H 1238 4950 50  0001 C CNN
F 3 "" H 1200 5100 50  0000 C CNN
	1    1200 5100
	1    0    0    -1  
$EndComp
$Comp
L L L1
U 1 1 58B07C7F
P 2300 4950
F 0 "L1" V 2250 4950 50  0000 C CNN
F 1 "10uH" V 2375 4950 50  0000 C CNN
F 2 "Inductors_SMD:L_Taiyo-Yuden_NR-40xx" H 2300 4950 50  0001 C CNN
F 3 "" H 2300 4950 50  0000 C CNN
	1    2300 4950
	0    -1   -1   0   
$EndComp
$Comp
L D_Schottky D1
U 1 1 58B07CB6
P 3100 4950
F 0 "D1" H 3100 5050 50  0000 C CNN
F 1 "D_Schottky" H 3100 4850 50  0000 C CNN
F 2 "Diodes_SMD:D_SMA_Standard" H 3100 4950 50  0001 C CNN
F 3 "" H 3100 4950 50  0000 C CNN
	1    3100 4950
	-1   0    0    1   
$EndComp
$Comp
L C C33
U 1 1 58B07D35
P 3500 5100
F 0 "C33" H 3525 5200 50  0000 L CNN
F 1 "1uF/50V/X5R" H 3250 5000 50  0000 L CNN
F 2 "custom:C_0603_0805" H 3538 4950 50  0001 C CNN
F 3 "" H 3500 5100 50  0000 C CNN
	1    3500 5100
	1    0    0    -1  
$EndComp
$Comp
L GND #PWR049
U 1 1 58B080AE
P 1200 5750
F 0 "#PWR049" H 1200 5500 50  0001 C CNN
F 1 "GND" H 1200 5600 50  0000 C CNN
F 2 "" H 1200 5750 50  0000 C CNN
F 3 "" H 1200 5750 50  0000 C CNN
	1    1200 5750
	1    0    0    -1  
$EndComp
$Comp
L GND #PWR050
U 1 1 58B08264
P 3500 5300
F 0 "#PWR050" H 3500 5050 50  0001 C CNN
F 1 "GND" H 3500 5150 50  0000 C CNN
F 2 "" H 3500 5300 50  0000 C CNN
F 3 "" H 3500 5300 50  0000 C CNN
	1    3500 5300
	1    0    0    -1  
$EndComp
Text Label 4000 4950 2    60   ~ 0
LED+
Text Label 4000 5600 2    60   ~ 0
LED-
$Comp
L R R20
U 1 1 58B08373
P 3350 5800
F 0 "R20" V 3430 5800 50  0000 C CNN
F 1 "2.61" V 3350 5800 50  0000 C CNN
F 2 "Resistors_SMD:R_0603" V 3280 5800 50  0001 C CNN
F 3 "" H 3350 5800 50  0000 C CNN
	1    3350 5800
	1    0    0    -1  
$EndComp
Text Notes 1400 7250 0    60   ~ 0
Constant current for LED\n\nRT9293~A~GJ6 / RT9293~B~GJ6 \nA = feedback voltage 104mV \nB = feedback voltage 300mV\nFeedback resistance = feedback_voltage / current\n\nAssuming backlight LED's (as network) need 40mA\n104mV/40mA = 2.6 Ohm  (Nearest 2.61 Ohm)\n300mV/40mA = 7.5 Ohm\n\n"EN" pin will be used to control brightness of LED via PWM. \nsee "Dimming Control" "a. Using a PWM Signal to EN Pin"
$Comp
L GND #PWR051
U 1 1 58B09313
P 3350 5950
F 0 "#PWR051" H 3350 5700 50  0001 C CNN
F 1 "GND" H 3350 5800 50  0000 C CNN
F 2 "" H 3350 5950 50  0000 C CNN
F 3 "" H 3350 5950 50  0000 C CNN
	1    3350 5950
	1    0    0    -1  
$EndComp
$Comp
L +5V #PWR052
U 1 1 58B0A37C
P 1200 4950
F 0 "#PWR052" H 1200 4800 50  0001 C CNN
F 1 "+5V" H 1200 5090 50  0000 C CNN
F 2 "" H 1200 4950 50  0000 C CNN
F 3 "" H 1200 4950 50  0000 C CNN
	1    1200 4950
	1    0    0    -1  
$EndComp
$Comp
L VDD #PWR053
U 1 1 58B0A407
P 10250 1450
F 0 "#PWR053" H 10250 1300 50  0001 C CNN
F 1 "VDD" H 10250 1600 50  0000 C CNN
F 2 "" H 10250 1450 50  0000 C CNN
F 3 "" H 10250 1450 50  0000 C CNN
	1    10250 1450
	0    -1   -1   0   
$EndComp
$Comp
L GND #PWR054
U 1 1 58B0A59A
P 9900 1350
F 0 "#PWR054" H 9900 1100 50  0001 C CNN
F 1 "GND" H 9900 1200 50  0000 C CNN
F 2 "" H 9900 1350 50  0000 C CNN
F 3 "" H 9900 1350 50  0000 C CNN
	1    9900 1350
	1    0    0    -1  
$EndComp
$Comp
L GND #PWR055
U 1 1 58B0A671
P 9850 3950
F 0 "#PWR055" H 9850 3700 50  0001 C CNN
F 1 "GND" H 9850 3800 50  0000 C CNN
F 2 "" H 9850 3950 50  0000 C CNN
F 3 "" H 9850 3950 50  0000 C CNN
	1    9850 3950
	1    0    0    -1  
$EndComp
$Comp
L GND #PWR056
U 1 1 58B0A6D2
P 9850 4650
F 0 "#PWR056" H 9850 4400 50  0001 C CNN
F 1 "GND" H 9850 4500 50  0000 C CNN
F 2 "" H 9850 4650 50  0000 C CNN
F 3 "" H 9850 4650 50  0000 C CNN
	1    9850 4650
	1    0    0    -1  
$EndComp
Text HLabel 9600 1450 0    60   Input ~ 0
LCD_R[0..7]
Entry Wire Line
	9650 1450 9750 1550
Entry Wire Line
	9650 1550 9750 1650
Entry Wire Line
	9650 1650 9750 1750
Entry Wire Line
	9650 1750 9750 1850
Entry Wire Line
	9650 1850 9750 1950
Entry Wire Line
	9650 1950 9750 2050
Entry Wire Line
	9650 2050 9750 2150
Entry Wire Line
	9650 2150 9750 2250
Entry Wire Line
	9650 2250 9750 2350
Entry Wire Line
	9650 2350 9750 2450
Entry Wire Line
	9650 2450 9750 2550
Entry Wire Line
	9650 2550 9750 2650
Entry Wire Line
	9650 2650 9750 2750
Entry Wire Line
	9650 2750 9750 2850
Entry Wire Line
	9650 2850 9750 2950
Entry Wire Line
	9650 2950 9750 3050
Text HLabel 9600 2250 0    60   Input ~ 0
LCD_G[0..7]
Entry Wire Line
	9650 3050 9750 3150
Entry Wire Line
	9650 3150 9750 3250
Entry Wire Line
	9650 3250 9750 3350
Entry Wire Line
	9650 3350 9750 3450
Entry Wire Line
	9650 3450 9750 3550
Entry Wire Line
	9650 3550 9750 3650
Entry Wire Line
	9650 3650 9750 3750
Entry Wire Line
	9650 3750 9750 3850
Text HLabel 9600 3050 0    60   Input ~ 0
LCD_B[0..7]
NoConn ~ 10700 4550
$Comp
L VDD #PWR057
U 1 1 58B0F7F6
P 4900 3900
F 0 "#PWR057" H 4900 3750 50  0001 C CNN
F 1 "VDD" H 4900 4050 50  0000 C CNN
F 2 "" H 4900 3900 50  0000 C CNN
F 3 "" H 4900 3900 50  0000 C CNN
	1    4900 3900
	1    0    0    -1  
$EndComp
Text Label 5300 4050 0    60   ~ 0
XL
Text Label 5300 4150 0    60   ~ 0
YD
Text Label 5300 4250 0    60   ~ 0
XR
Text Label 5300 4350 0    60   ~ 0
YU
$Comp
L GND #PWR058
U 1 1 58B0FA6A
P 5300 4700
F 0 "#PWR058" H 5300 4450 50  0001 C CNN
F 1 "GND" H 5300 4550 50  0000 C CNN
F 2 "" H 5300 4700 50  0000 C CNN
F 3 "" H 5300 4700 50  0000 C CNN
	1    5300 4700
	1    0    0    -1  
$EndComp
$Comp
L VDD #PWR059
U 1 1 58B10218
P 7250 4600
F 0 "#PWR059" H 7250 4450 50  0001 C CNN
F 1 "VDD" H 7250 4750 50  0000 C CNN
F 2 "" H 7250 4600 50  0000 C CNN
F 3 "" H 7250 4600 50  0000 C CNN
	1    7250 4600
	0    1    1    0   
$EndComp
$Comp
L C C32
U 1 1 58B106C2
P 5050 4250
F 0 "C32" H 5075 4350 50  0000 L CNN
F 1 "100nF" H 5075 4150 50  0000 L CNN
F 2 "Capacitors_SMD:C_0603" H 5088 4100 50  0001 C CNN
F 3 "" H 5050 4250 50  0000 C CNN
	1    5050 4250
	-1   0    0    -1  
$EndComp
$Comp
L GND #PWR060
U 1 1 58B1075E
P 5050 4400
F 0 "#PWR060" H 5050 4150 50  0001 C CNN
F 1 "GND" H 5050 4250 50  0000 C CNN
F 2 "" H 5050 4400 50  0000 C CNN
F 3 "" H 5050 4400 50  0000 C CNN
	1    5050 4400
	1    0    0    -1  
$EndComp
$Comp
L C C30
U 1 1 58B10F67
P 4700 4250
F 0 "C30" H 4725 4350 50  0000 L CNN
F 1 "1uF" H 4725 4150 50  0000 L CNN
F 2 "Capacitors_SMD:C_0603" H 4738 4100 50  0001 C CNN
F 3 "" H 4700 4250 50  0000 C CNN
	1    4700 4250
	-1   0    0    -1  
$EndComp
$Comp
L GND #PWR061
U 1 1 58B11051
P 4700 4400
F 0 "#PWR061" H 4700 4150 50  0001 C CNN
F 1 "GND" H 4700 4250 50  0000 C CNN
F 2 "" H 4700 4400 50  0000 C CNN
F 3 "" H 4700 4400 50  0000 C CNN
	1    4700 4400
	1    0    0    -1  
$EndComp
$Comp
L R R21
U 1 1 58B115E3
P 7650 4250
F 0 "R21" V 7730 4250 50  0000 C CNN
F 1 "10K" V 7650 4250 50  0000 C CNN
F 2 "Resistors_SMD:R_0603" V 7580 4250 50  0001 C CNN
F 3 "" H 7650 4250 50  0000 C CNN
	1    7650 4250
	1    0    0    1   
$EndComp
$Comp
L VDD #PWR062
U 1 1 58B11689
P 7650 4100
F 0 "#PWR062" H 7650 3950 50  0001 C CNN
F 1 "VDD" H 7650 4250 50  0000 C CNN
F 2 "" H 7650 4100 50  0000 C CNN
F 3 "" H 7650 4100 50  0000 C CNN
	1    7650 4100
	1    0    0    -1  
$EndComp
Text Notes 4500 5100 0    60   ~ 0
Resistive touch controller
Text Notes 950  4550 0    60   ~ 0
[pin compatible]\nRT4533/A, RT9293, RT9271, APW7209,  MP1518DJ, MP3202DJ, \nPT4103, PT4101, PAM2803, ZYG3312, AT1313/AT1316\nAP3036 - but don't need diode\nFAN5333 - but no over voltage protection\n\n[pin incompatible]\nPT4110, STLD40DPUR, NCP5007, FAN5345, \nZXSC400, TPS61042, SX1308
Text Notes 5800 5100 0    60   ~ 0
[pin compatible]\nXPT2046, ADS7843
Text HLabel 10500 4050 0    60   Input ~ 0
LCD_CLK
Text HLabel 10500 4150 0    60   Input ~ 0
LCD_DISP
Text HLabel 10500 4250 0    60   Input ~ 0
LCD_HSYNC
Text HLabel 10500 4350 0    60   Input ~ 0
LCD_VSYNC
Text HLabel 10500 4450 0    60   Input ~ 0
LCD_DE
Text HLabel 6950 3950 2    60   Input ~ 0
TP_DCLK
Text HLabel 6950 4050 2    60   Input ~ 0
~TP_CS
Text HLabel 6950 4150 2    60   Input ~ 0
TP_DIN
Text HLabel 6950 4250 2    60   Output ~ 0
TP_BUSY
Text HLabel 6950 4350 2    60   Output ~ 0
TP_DOUT
Text HLabel 6950 4450 2    60   Output ~ 0
~TP_PENIRQ
Text HLabel 1650 5600 0    60   Input ~ 0
BL_EN
Text HLabel 1200 6500 1    60   Input ~ 0
BL_EN
$Comp
L R R19
U 1 1 58B05B02
P 1200 6650
F 0 "R19" V 1280 6650 50  0000 C CNN
F 1 "10K" V 1200 6650 50  0000 C CNN
F 2 "Resistors_SMD:R_0603" V 1130 6650 50  0001 C CNN
F 3 "" H 1200 6650 50  0000 C CNN
	1    1200 6650
	1    0    0    -1  
$EndComp
$Comp
L GND #PWR063
U 1 1 58B05BA4
P 1200 6800
F 0 "#PWR063" H 1200 6550 50  0001 C CNN
F 1 "GND" H 1200 6650 50  0000 C CNN
F 2 "" H 1200 6800 50  0000 C CNN
F 3 "" H 1200 6800 50  0000 C CNN
	1    1200 6800
	1    0    0    -1  
$EndComp
$Comp
L TEST TP16
U 1 1 58B260D9
P 3500 4950
F 0 "TP16" H 3500 5250 50  0000 C BNN
F 1 "TEST" H 3500 5200 50  0000 C CNN
F 2 "Measurement_Points:Measurement_Point_Round-TH_Small" H 3500 4950 50  0001 C CNN
F 3 "" H 3500 4950 50  0000 C CNN
	1    3500 4950
	1    0    0    -1  
$EndComp
$Comp
L TEST TP14
U 1 1 58B2699E
P 1700 5600
F 0 "TP14" H 1700 5900 50  0000 C BNN
F 1 "TEST" H 1700 5850 50  0000 C CNN
F 2 "Measurement_Points:Measurement_Point_Round-TH_Small" H 1700 5600 50  0001 C CNN
F 3 "" H 1700 5600 50  0000 C CNN
	1    1700 5600
	-1   0    0    1   
$EndComp
$Comp
L TEST TP17
U 1 1 58B26A70
P 3600 5600
F 0 "TP17" H 3600 5900 50  0000 C BNN
F 1 "TEST" H 3600 5850 50  0000 C CNN
F 2 "Measurement_Points:Measurement_Point_Round-TH_Small" H 3600 5600 50  0001 C CNN
F 3 "" H 3600 5600 50  0000 C CNN
	1    3600 5600
	-1   0    0    1   
$EndComp
Text Label 10150 1550 0    60   ~ 0
LCD_R0
Text Label 10150 1650 0    60   ~ 0
LCD_R1
Text Label 10150 1750 0    60   ~ 0
LCD_R2
Text Label 10150 1850 0    60   ~ 0
LCD_R3
Text Label 10150 1950 0    60   ~ 0
LCD_R4
Text Label 10150 2050 0    60   ~ 0
LCD_R5
Text Label 10150 2150 0    60   ~ 0
LCD_R6
Text Label 10150 2350 0    60   ~ 0
LCD_G0
Text Label 10150 2450 0    60   ~ 0
LCD_G1
Text Label 10150 2550 0    60   ~ 0
LCD_G2
Text Label 10150 2650 0    60   ~ 0
LCD_G3
Text Label 10150 2750 0    60   ~ 0
LCD_G4
Text Label 10150 2850 0    60   ~ 0
LCD_G5
Text Label 10150 2950 0    60   ~ 0
LCD_G6
Text Label 10150 3050 0    60   ~ 0
LCD_G7
Text Label 10150 3150 0    60   ~ 0
LCD_B0
Text Label 10150 3250 0    60   ~ 0
LCD_B1
Text Label 10150 3350 0    60   ~ 0
LCD_B2
Text Label 10150 3450 0    60   ~ 0
LCD_B3
Text Label 10150 3550 0    60   ~ 0
LCD_B4
Text Label 10150 3650 0    60   ~ 0
LCD_B5
Text Label 10150 3750 0    60   ~ 0
LCD_B6
Text Label 10150 3850 0    60   ~ 0
LCD_B7
Text HLabel 8300 1250 1    60   Input ~ 0
LCD_DISP
$Comp
L R R33
U 1 1 58B35D9D
P 8300 1400
F 0 "R33" V 8380 1400 50  0000 C CNN
F 1 "10K" V 8300 1400 50  0000 C CNN
F 2 "Resistors_SMD:R_0603" V 8230 1400 50  0001 C CNN
F 3 "" H 8300 1400 50  0000 C CNN
	1    8300 1400
	1    0    0    -1  
$EndComp
$Comp
L GND #PWR064
U 1 1 58B35E64
P 8300 1550
F 0 "#PWR064" H 8300 1300 50  0001 C CNN
F 1 "GND" H 8300 1400 50  0000 C CNN
F 2 "" H 8300 1550 50  0000 C CNN
F 3 "" H 8300 1550 50  0000 C CNN
	1    8300 1550
	1    0    0    -1  
$EndComp
Text Label 10150 2250 0    60   ~ 0
LCD_R7
$Comp
L 5INCH_DPI_LCD U11
U 1 1 58B66EAF
P 3850 2100
F 0 "U11" H 3850 2000 50  0000 C CNN
F 1 "5INCH_DPI_LCD" H 3850 2200 50  0000 C CNN
F 2 "custom:5INCH_DPI_LCD" H 3850 2100 50  0001 C CNN
F 3 "DOCUMENTATION" H 3850 2100 50  0001 C CNN
	1    3850 2100
	1    0    0    -1  
$EndComp
Text Label 950  950  0    60   ~ 0
LED-
Text Label 950  1050 0    60   ~ 0
LED+
$Comp
L VDD #PWR065
U 1 1 58B68550
P 1300 1300
F 0 "#PWR065" H 1300 1150 50  0001 C CNN
F 1 "VDD" H 1300 1450 50  0000 C CNN
F 2 "" H 1300 1300 50  0000 C CNN
F 3 "" H 1300 1300 50  0000 C CNN
	1    1300 1300
	0    -1   -1   0   
$EndComp
$Comp
L GND #PWR066
U 1 1 58B68556
P 950 1200
F 0 "#PWR066" H 950 950 50  0001 C CNN
F 1 "GND" H 950 1050 50  0000 C CNN
F 2 "" H 950 1200 50  0000 C CNN
F 3 "" H 950 1200 50  0000 C CNN
	1    950  1200
	1    0    0    -1  
$EndComp
Text HLabel 7050 850  2    60   Input ~ 0
LCD_R[0..7]
Entry Wire Line
	7000 850  6900 950 
Entry Wire Line
	7000 950  6900 1050
Entry Wire Line
	7000 1050 6900 1150
Entry Wire Line
	7000 1150 6900 1250
Entry Wire Line
	7000 1250 6900 1350
Entry Wire Line
	7000 1350 6900 1450
Entry Wire Line
	7000 1450 6900 1550
Entry Wire Line
	7000 1550 6900 1650
Entry Wire Line
	7000 1700 6900 1800
Entry Wire Line
	7000 1800 6900 1900
Entry Wire Line
	7000 1900 6900 2000
Entry Wire Line
	7000 2000 6900 2100
Entry Wire Line
	7000 2100 6900 2200
Entry Wire Line
	7000 2200 6900 2300
Entry Wire Line
	7000 2300 6900 2400
Entry Wire Line
	7000 2400 6900 2500
Text HLabel 7050 1700 2    60   Input ~ 0
LCD_G[0..7]
Entry Wire Line
	7000 2550 6900 2650
Entry Wire Line
	7000 2650 6900 2750
Entry Wire Line
	7000 2750 6900 2850
Entry Wire Line
	7000 2850 6900 2950
Entry Wire Line
	7000 2950 6900 3050
Entry Wire Line
	7000 3050 6900 3150
Entry Wire Line
	7000 3150 6900 3250
Entry Wire Line
	7000 3250 6900 3350
Text HLabel 7050 2550 2    60   Input ~ 0
LCD_B[0..7]
Text Label 6500 950  2    60   ~ 0
LCD_R0
Text Label 6500 1050 2    60   ~ 0
LCD_R1
Text Label 6500 1150 2    60   ~ 0
LCD_R2
Text Label 6500 1250 2    60   ~ 0
LCD_R3
Text Label 6500 1350 2    60   ~ 0
LCD_R4
Text Label 6500 1450 2    60   ~ 0
LCD_R5
Text Label 6500 1550 2    60   ~ 0
LCD_R6
Text Label 6500 1800 2    60   ~ 0
LCD_G0
Text Label 6500 1900 2    60   ~ 0
LCD_G1
Text Label 6500 2000 2    60   ~ 0
LCD_G2
Text Label 6500 2100 2    60   ~ 0
LCD_G3
Text Label 6500 2200 2    60   ~ 0
LCD_G4
Text Label 6500 2300 2    60   ~ 0
LCD_G5
Text Label 6500 2400 2    60   ~ 0
LCD_G6
Text Label 6500 2500 2    60   ~ 0
LCD_G7
Text Label 6500 2650 2    60   ~ 0
LCD_B0
Text Label 6500 2750 2    60   ~ 0
LCD_B1
Text Label 6500 2850 2    60   ~ 0
LCD_B2
Text Label 6500 2950 2    60   ~ 0
LCD_B3
Text Label 6500 3050 2    60   ~ 0
LCD_B4
Text Label 6500 3150 2    60   ~ 0
LCD_B5
Text Label 6500 3250 2    60   ~ 0
LCD_B6
Text Label 6500 3350 2    60   ~ 0
LCD_B7
Text Label 6500 1650 2    60   ~ 0
LCD_R7
Text Label 1150 3050 0    60   ~ 0
XR
Text Label 1150 3150 0    60   ~ 0
YD
Text Label 1150 3250 0    60   ~ 0
XL
Text Label 1150 3350 0    60   ~ 0
YU
$Comp
L GND #PWR067
U 1 1 58B68B1D
P 800 1800
F 0 "#PWR067" H 800 1550 50  0001 C CNN
F 1 "GND" H 800 1650 50  0000 C CNN
F 2 "" H 800 1800 50  0000 C CNN
F 3 "" H 800 1800 50  0000 C CNN
	1    800  1800
	1    0    0    -1  
$EndComp
$Comp
L GND #PWR068
U 1 1 58B68B23
P 1000 2500
F 0 "#PWR068" H 1000 2250 50  0001 C CNN
F 1 "GND" H 1000 2350 50  0000 C CNN
F 2 "" H 1000 2500 50  0000 C CNN
F 3 "" H 1000 2500 50  0000 C CNN
	1    1000 2500
	1    0    0    -1  
$EndComp
Text HLabel 1400 1900 0    60   Input ~ 0
LCD_CLK
Text HLabel 1400 2000 0    60   Input ~ 0
LCD_DISP
Text HLabel 1400 2100 0    60   Input ~ 0
LCD_HSYNC
Text HLabel 1400 2200 0    60   Input ~ 0
LCD_VSYNC
Text HLabel 1400 2300 0    60   Input ~ 0
LCD_DE
NoConn ~ 1400 2400
$Comp
L XPT2046 U8
U 1 1 58B0C975
P 6200 4300
F 0 "U8" H 6200 4200 50  0000 C CNN
F 1 "XPT2046" H 6200 4400 50  0000 C CNN
F 2 "Housings_SSOP:TSSOP-16_4.4x5mm_Pitch0.65mm" H 6200 4300 50  0001 C CNN
F 3 "DOCUMENTATION" H 6200 4300 50  0001 C CNN
	1    6200 4300
	1    0    0    -1  
$EndComp
$Comp
L TEST TP36
U 1 1 58B70AC9
P 1650 4950
F 0 "TP36" H 1650 5250 50  0000 C BNN
F 1 "TEST" H 1650 5200 50  0000 C CNN
F 2 "Measurement_Points:Measurement_Point_Round-TH_Small" H 1650 4950 50  0001 C CNN
F 3 "" H 1650 4950 50  0000 C CNN
	1    1650 4950
	1    0    0    -1  
$EndComp
$Comp
L PWR_FLAG #FLG069
U 1 1 58BA3AB8
P 4000 4950
F 0 "#FLG069" H 4000 5045 50  0001 C CNN
F 1 "PWR_FLAG" H 4000 5130 50  0000 C CNN
F 2 "" H 4000 4950 50  0000 C CNN
F 3 "" H 4000 4950 50  0000 C CNN
	1    4000 4950
	1    0    0    -1  
$EndComp
$Comp
L PWR_FLAG #FLG070
U 1 1 58BA3B29
P 4000 5600
F 0 "#FLG070" H 4000 5695 50  0001 C CNN
F 1 "PWR_FLAG" H 4000 5780 50  0000 C CNN
F 2 "" H 4000 5600 50  0000 C CNN
F 3 "" H 4000 5600 50  0000 C CNN
	1    4000 5600
	-1   0    0    1   
$EndComp
Text Notes 950  7600 0    60   ~ 0
Recommended Inductors (datasheet)\nNR4018T100M, NR4018T220M
$Comp
L RT4533 U7
U 1 1 58BA7D78
P 2300 5450
F 0 "U7" H 2300 5200 50  0000 C CNN
F 1 "RT4533" H 2300 5700 50  0000 C CNN
F 2 "TO_SOT_Packages_SMD:TSOT-23-6_MK06A" H 2300 5200 50  0001 C CNN
F 3 "DOCUMENTATION" H 2300 5200 50  0001 C CNN
	1    2300 5450
	1    0    0    -1  
$EndComp
Text Notes 2250 800  0    60   ~ 0
Any DPI LCD with flap pitch 0.5mm and standard 40 pin interface.
Wire Wire Line
	10700 1150 10250 1150
Wire Wire Line
	10700 1250 10250 1250
Wire Wire Line
	9900 1350 10700 1350
Wire Wire Line
	10700 1450 10250 1450
Wire Wire Line
	9750 1550 10700 1550
Wire Wire Line
	9750 1650 10700 1650
Wire Wire Line
	9750 1750 10700 1750
Wire Wire Line
	9750 1850 10700 1850
Wire Wire Line
	9750 1950 10700 1950
Wire Wire Line
	9750 2050 10700 2050
Wire Wire Line
	9750 2150 10700 2150
Wire Wire Line
	9750 2250 10700 2250
Wire Wire Line
	9750 2350 10700 2350
Wire Wire Line
	9750 2450 10700 2450
Wire Wire Line
	9750 2550 10700 2550
Wire Wire Line
	9750 2650 10700 2650
Wire Wire Line
	9750 2750 10700 2750
Wire Wire Line
	9750 2850 10700 2850
Wire Wire Line
	9750 2950 10700 2950
Wire Wire Line
	9750 3050 10700 3050
Wire Wire Line
	9750 3150 10700 3150
Wire Wire Line
	9750 3250 10700 3250
Wire Wire Line
	9750 3350 10700 3350
Wire Wire Line
	9750 3450 10700 3450
Wire Wire Line
	9750 3550 10700 3550
Wire Wire Line
	9750 3650 10700 3650
Wire Wire Line
	9750 3750 10700 3750
Wire Wire Line
	9750 3850 10700 3850
Wire Wire Line
	9850 3950 10700 3950
Wire Wire Line
	10700 4050 10500 4050
Wire Wire Line
	10700 4150 10500 4150
Wire Wire Line
	10700 4250 10500 4250
Wire Wire Line
	10700 4350 10500 4350
Wire Wire Line
	10700 4450 10500 4450
Wire Wire Line
	9850 4650 10700 4650
Wire Wire Line
	10700 4750 10250 4750
Wire Wire Line
	10700 4850 10250 4850
Wire Wire Line
	10700 4950 10250 4950
Wire Wire Line
	10700 5050 10250 5050
Wire Wire Line
	1200 4950 2150 4950
Wire Wire Line
	2450 4950 2950 4950
Wire Wire Line
	3250 4950 4000 4950
Wire Wire Line
	1650 4950 1650 5300
Connection ~ 1650 4950
Wire Wire Line
	2950 4950 2950 5300
Wire Wire Line
	2900 5450 3300 5450
Wire Wire Line
	3300 5450 3300 4950
Connection ~ 3300 4950
Connection ~ 2950 4950
Wire Wire Line
	1700 5450 1200 5450
Wire Wire Line
	1200 5250 1200 5750
Connection ~ 1200 5450
Wire Wire Line
	1650 5600 1700 5600
Wire Wire Line
	3500 5300 3500 5250
Wire Wire Line
	2900 5600 4000 5600
Connection ~ 3500 4950
Connection ~ 3350 5600
Wire Wire Line
	3350 5650 3350 5600
Wire Notes Line
	900  3650 900  7650
Wire Notes Line
	900  7650 4300 7650
Wire Notes Line
	4300 7650 4300 3650
Wire Notes Line
	4300 3650 900  3650
Wire Bus Line
	9600 1450 9650 1450
Wire Bus Line
	9650 1450 9650 2150
Wire Bus Line
	9650 2250 9650 2950
Wire Bus Line
	9650 2250 9600 2250
Wire Bus Line
	9600 3050 9650 3050
Wire Bus Line
	9650 3050 9650 3750
Wire Wire Line
	4700 3950 5450 3950
Wire Wire Line
	5450 4050 5300 4050
Wire Wire Line
	5450 4150 5300 4150
Wire Wire Line
	5450 4250 5300 4250
Wire Wire Line
	5450 4350 5300 4350
Wire Wire Line
	5450 4450 5300 4450
Wire Wire Line
	5300 4450 5300 4700
Wire Wire Line
	5450 4550 5300 4550
Connection ~ 5300 4550
Wire Wire Line
	5450 4650 5300 4650
Connection ~ 5300 4650
Wire Wire Line
	6950 4450 7650 4450
Wire Wire Line
	6950 4550 7100 4550
Wire Wire Line
	7100 4550 7100 4650
Wire Wire Line
	7100 4650 6950 4650
Wire Wire Line
	7100 4600 7250 4600
Connection ~ 7100 4600
Connection ~ 5050 3950
Wire Wire Line
	4700 4100 4700 3950
Wire Wire Line
	5050 4100 5050 3950
Wire Wire Line
	4900 3900 4900 3950
Connection ~ 4900 3950
Wire Wire Line
	7650 4450 7650 4400
Wire Notes Line
	4450 3650 4450 5200
Wire Notes Line
	4450 5200 9100 5200
Wire Notes Line
	9100 5200 9100 3650
Wire Notes Line
	9100 3650 4450 3650
Wire Wire Line
	1650 5300 1700 5300
Wire Wire Line
	2950 5300 2900 5300
Connection ~ 3600 5600
Wire Wire Line
	1400 950  950  950 
Wire Wire Line
	1400 1050 950  1050
Wire Wire Line
	950  1200 1400 1200
Wire Wire Line
	1400 1300 1300 1300
Wire Wire Line
	6900 950  5950 950 
Wire Wire Line
	6900 1050 5950 1050
Wire Wire Line
	6900 1150 5950 1150
Wire Wire Line
	6900 1250 5950 1250
Wire Wire Line
	6900 1350 5950 1350
Wire Wire Line
	6900 1450 5950 1450
Wire Wire Line
	6900 1550 5950 1550
Wire Wire Line
	6900 1650 5950 1650
Wire Wire Line
	6900 1800 5950 1800
Wire Wire Line
	6900 1900 5950 1900
Wire Wire Line
	6900 2000 5950 2000
Wire Wire Line
	6900 2100 5950 2100
Wire Wire Line
	6900 2200 5950 2200
Wire Wire Line
	6900 2300 5950 2300
Wire Wire Line
	6900 2400 5950 2400
Wire Wire Line
	6900 2500 5950 2500
Wire Wire Line
	6900 2650 5950 2650
Wire Wire Line
	6900 2750 5950 2750
Wire Wire Line
	6900 2850 5950 2850
Wire Wire Line
	6900 2950 5950 2950
Wire Wire Line
	6900 3050 5950 3050
Wire Wire Line
	6900 3150 5950 3150
Wire Wire Line
	6900 3250 5950 3250
Wire Wire Line
	6900 3350 5950 3350
Wire Bus Line
	7050 850  7000 850 
Wire Bus Line
	7000 850  7000 1550
Wire Bus Line
	7000 1700 7000 2400
Wire Bus Line
	7000 1700 7050 1700
Wire Bus Line
	7050 2550 7000 2550
Wire Bus Line
	7000 2550 7000 3250
Wire Wire Line
	800  1800 1400 1800
Wire Wire Line
	1400 1900 1400 1900
Wire Wire Line
	1400 2000 1400 2000
Wire Wire Line
	1400 2100 1400 2100
Wire Wire Line
	1400 2200 1400 2200
Wire Wire Line
	1400 2300 1400 2300
Wire Wire Line
	1000 2500 1400 2500
Wire Wire Line
	1400 3050 1150 3050
Wire Wire Line
	1400 3150 1150 3150
Wire Wire Line
	1400 3250 1150 3250
Wire Wire Line
	1400 3350 1150 3350
$Comp
L C C39
U 1 1 58EE0F9D
P 6950 4800
F 0 "C39" H 6975 4900 50  0000 L CNN
F 1 "100nF" H 6975 4700 50  0000 L CNN
F 2 "Capacitors_SMD:C_0603" H 6988 4650 50  0001 C CNN
F 3 "" H 6950 4800 50  0001 C CNN
	1    6950 4800
	1    0    0    -1  
$EndComp
$Comp
L GND #PWR071
U 1 1 58EE104F
P 6950 4950
F 0 "#PWR071" H 6950 4700 50  0001 C CNN
F 1 "GND" H 6950 4800 50  0000 C CNN
F 2 "" H 6950 4950 50  0001 C CNN
F 3 "" H 6950 4950 50  0001 C CNN
	1    6950 4950
	1    0    0    -1  
$EndComp
Text HLabel 8350 3900 2    60   Input ~ 0
TP_DCLK
Text HLabel 8350 4100 2    60   Input ~ 0
~TP_CS
Text HLabel 8350 4300 2    60   Input ~ 0
TP_DIN
Text HLabel 8350 4500 2    60   Output ~ 0
TP_BUSY
Text HLabel 8350 4700 2    60   Output ~ 0
TP_DOUT
Text HLabel 8350 4900 2    60   Output ~ 0
~TP_PENIRQ
$Comp
L TEST TP42
U 1 1 58ED2481
P 8350 3900
F 0 "TP42" H 8350 4200 50  0000 C BNN
F 1 "TEST" H 8350 4150 50  0000 C CNN
F 2 "Measurement_Points:Measurement_Point_Round-TH_Small" H 8350 3900 50  0001 C CNN
F 3 "" H 8350 3900 50  0001 C CNN
	1    8350 3900
	0    -1   -1   0   
$EndComp
$Comp
L TEST TP43
U 1 1 58ED2576
P 8350 4100
F 0 "TP43" H 8350 4400 50  0000 C BNN
F 1 "TEST" H 8350 4350 50  0000 C CNN
F 2 "Measurement_Points:Measurement_Point_Round-TH_Small" H 8350 4100 50  0001 C CNN
F 3 "" H 8350 4100 50  0001 C CNN
	1    8350 4100
	0    -1   -1   0   
$EndComp
$Comp
L TEST TP44
U 1 1 58ED261F
P 8350 4300
F 0 "TP44" H 8350 4600 50  0000 C BNN
F 1 "TEST" H 8350 4550 50  0000 C CNN
F 2 "Measurement_Points:Measurement_Point_Round-TH_Small" H 8350 4300 50  0001 C CNN
F 3 "" H 8350 4300 50  0001 C CNN
	1    8350 4300
	0    -1   -1   0   
$EndComp
$Comp
L TEST TP45
U 1 1 58ED268D
P 8350 4500
F 0 "TP45" H 8350 4800 50  0000 C BNN
F 1 "TEST" H 8350 4750 50  0000 C CNN
F 2 "Measurement_Points:Measurement_Point_Round-TH_Small" H 8350 4500 50  0001 C CNN
F 3 "" H 8350 4500 50  0001 C CNN
	1    8350 4500
	0    -1   -1   0   
$EndComp
$Comp
L TEST TP46
U 1 1 58ED26FD
P 8350 4700
F 0 "TP46" H 8350 5000 50  0000 C BNN
F 1 "TEST" H 8350 4950 50  0000 C CNN
F 2 "Measurement_Points:Measurement_Point_Round-TH_Small" H 8350 4700 50  0001 C CNN
F 3 "" H 8350 4700 50  0001 C CNN
	1    8350 4700
	0    -1   -1   0   
$EndComp
$Comp
L TEST TP47
U 1 1 58ED2771
P 8350 4900
F 0 "TP47" H 8350 5200 50  0000 C BNN
F 1 "TEST" H 8350 5150 50  0000 C CNN
F 2 "Measurement_Points:Measurement_Point_Round-TH_Small" H 8350 4900 50  0001 C CNN
F 3 "" H 8350 4900 50  0001 C CNN
	1    8350 4900
	0    -1   -1   0   
$EndComp
$Comp
L C C46
U 1 1 59010720
P 8300 2300
F 0 "C46" H 8325 2400 50  0000 L CNN
F 1 "100nF" H 8050 2200 50  0000 L CNN
F 2 "Capacitors_SMD:C_0603" H 8338 2150 50  0001 C CNN
F 3 "" H 8300 2300 50  0000 C CNN
	1    8300 2300
	1    0    0    -1  
$EndComp
$Comp
L VDD #PWR072
U 1 1 59010B06
P 8300 2150
F 0 "#PWR072" H 8300 2000 50  0001 C CNN
F 1 "VDD" H 8300 2300 50  0000 C CNN
F 2 "" H 8300 2150 50  0000 C CNN
F 3 "" H 8300 2150 50  0000 C CNN
	1    8300 2150
	1    0    0    -1  
$EndComp
$Comp
L GND #PWR073
U 1 1 59010C49
P 8300 2450
F 0 "#PWR073" H 8300 2200 50  0001 C CNN
F 1 "GND" H 8300 2300 50  0000 C CNN
F 2 "" H 8300 2450 50  0000 C CNN
F 3 "" H 8300 2450 50  0000 C CNN
	1    8300 2450
	1    0    0    -1  
$EndComp
$EndSCHEMATC
