EESchema Schematic File Version 2
LIBS:power
LIBS:device
LIBS:transistors
LIBS:conn
LIBS:linear
LIBS:regul
LIBS:74xx
LIBS:cmos4000
LIBS:adc-dac
LIBS:memory
LIBS:xilinx
LIBS:microcontrollers
LIBS:dsp
LIBS:microchip
LIBS:analog_switches
LIBS:motorola
LIBS:texas
LIBS:intel
LIBS:audio
LIBS:interface
LIBS:digital-audio
LIBS:philips
LIBS:display
LIBS:cypress
LIBS:siliconi
LIBS:opto
LIBS:atmel
LIBS:contrib
LIBS:valves
LIBS:XPT2046
LIBS:NCS2211
LIBS:SSM3J328RLF
LIBS:IP4220CZ6
LIBS:LD3985M3xR
LIBS:RT9728Bx
LIBS:DIN_6
LIBS:5INCH_DPI_LCD
LIBS:RT4533
LIBS:STM32F767VxTx
LIBS:switches
LIBS:Mounting_Hole
LIBS:diy-vt100-cache
EELAYER 25 0
EELAYER END
$Descr A4 11693 8268
encoding utf-8
Sheet 8 11
Title "diy-VT100"
Date ""
Rev "0.4"
Comp "Mad Resistor"
Comment1 "https://www.madresistor.com/diy-vt100"
Comment2 "Copyright (C) 2016, 2017 Mad Resistor"
Comment3 ""
Comment4 ""
$EndDescr
$Comp
L DIN_6 P7
U 1 1 5764BE9A
P 5750 3050
F 0 "P7" H 5750 3050 50  0000 C CNN
F 1 "DIN_6" H 5750 3150 50  0000 C CNN
F 2 "custom:DIN_Mini_6P" H 5750 3050 50  0001 C CNN
F 3 "" H 5750 3050 50  0000 C CNN
	1    5750 3050
	1    0    0    -1  
$EndComp
$Comp
L GND #PWR081
U 1 1 5764BEA1
P 6800 3500
F 0 "#PWR081" H 6800 3250 50  0001 C CNN
F 1 "GND" H 6800 3350 50  0000 C CNN
F 2 "" H 6800 3500 50  0000 C CNN
F 3 "" H 6800 3500 50  0000 C CNN
	1    6800 3500
	-1   0    0    -1  
$EndComp
Text HLabel 6050 3500 2    60   BiDi ~ 0
PS2_DATA
Text HLabel 5500 3500 0    60   BiDi ~ 0
UNUSED_1
Text HLabel 6250 2850 2    60   BiDi ~ 0
PS2_CLOCK
Text Notes 4050 2400 0    60   ~ 0
PS/2 Pinout: \nhttp://www.hardwarebook.info/Keyboard_%286_PC%2C_PS/2%29\nUNUSED_1 and UNUSED_2 are provided in case some special case arise.\nfor example, UNUSED_2 can be become ~PWR_ON
Text HLabel 5300 2850 0    60   BiDi ~ 0
UNUSED_2
Text HLabel 5700 4150 0    60   BiDi ~ 0
PS2_DATA
Text HLabel 5700 4250 0    60   BiDi ~ 0
UNUSED_1
Text HLabel 5700 4050 0    60   BiDi ~ 0
PS2_CLOCK
Text HLabel 5700 4350 0    60   BiDi ~ 0
UNUSED_2
$Comp
L C C34
U 1 1 57699149
P 4250 3350
F 0 "C34" H 4275 3450 50  0000 L CNN
F 1 "4.7uF" H 4275 3250 50  0000 L CNN
F 2 "Capacitors_SMD:C_0805" H 4288 3200 50  0001 C CNN
F 3 "" H 4250 3350 50  0000 C CNN
	1    4250 3350
	1    0    0    -1  
$EndComp
$Comp
L GND #PWR082
U 1 1 57699212
P 4250 3500
F 0 "#PWR082" H 4250 3250 50  0001 C CNN
F 1 "GND" H 4250 3350 50  0000 C CNN
F 2 "" H 4250 3500 50  0000 C CNN
F 3 "" H 4250 3500 50  0000 C CNN
	1    4250 3500
	1    0    0    -1  
$EndComp
$Comp
L IP4220CZ6 U9
U 1 1 576C5D6C
P 6450 4200
F 0 "U9" H 6450 4000 50  0000 C CNN
F 1 "IP4220CZ6" H 6450 4400 50  0000 C CNN
F 2 "TO_SOT_Packages_SMD:TSOT-23-6_MK06A" H 6450 4200 50  0001 C CNN
F 3 "DOCUMENTATION" H 6450 4200 50  0001 C CNN
	1    6450 4200
	1    0    0    -1  
$EndComp
$Comp
L GND #PWR083
U 1 1 576C5EB9
P 7300 4400
F 0 "#PWR083" H 7300 4150 50  0001 C CNN
F 1 "GND" H 7300 4250 50  0000 C CNN
F 2 "" H 7300 4400 50  0000 C CNN
F 3 "" H 7300 4400 50  0000 C CNN
	1    7300 4400
	1    0    0    -1  
$EndComp
$Comp
L R R30
U 1 1 578BBFD1
P 7500 2850
F 0 "R30" V 7580 2850 50  0000 C CNN
F 1 "10K" V 7500 2850 50  0000 C CNN
F 2 "Resistors_SMD:R_0603" V 7430 2850 50  0001 C CNN
F 3 "" H 7500 2850 50  0000 C CNN
	1    7500 2850
	1    0    0    -1  
$EndComp
$Comp
L R R31
U 1 1 578BC018
P 7700 2850
F 0 "R31" V 7780 2850 50  0000 C CNN
F 1 "10K" V 7700 2850 50  0000 C CNN
F 2 "Resistors_SMD:R_0603" V 7630 2850 50  0001 C CNN
F 3 "" H 7700 2850 50  0000 C CNN
	1    7700 2850
	1    0    0    -1  
$EndComp
Text HLabel 7500 3100 3    60   BiDi ~ 0
PS2_CLOCK
Text HLabel 7700 3100 3    60   BiDi ~ 0
PS2_DATA
$Comp
L SSM3J328R,LF Q2
U 1 1 578C01F4
P 3750 2900
F 0 "Q2" H 3950 2975 50  0000 L CNN
F 1 "SSM3J328R,LF" H 3950 2900 50  0000 L CNN
F 2 "TO_SOT_Packages_SMD:SOT-23" H 3950 2825 50  0001 L CIN
F 3 "" H 3750 2900 50  0000 L CNN
	1    3750 2900
	1    0    0    1   
$EndComp
Text HLabel 3400 2850 0    60   Input ~ 0
~PWR_EN
$Comp
L R R29
U 1 1 578C10F0
P 3650 2650
F 0 "R29" V 3730 2650 50  0000 C CNN
F 1 "10K" V 3650 2650 50  0000 C CNN
F 2 "Resistors_SMD:R_0603" V 3580 2650 50  0001 C CNN
F 3 "" H 3650 2650 50  0000 C CNN
	1    3650 2650
	0    -1   -1   0   
$EndComp
$Comp
L +5V #PWR084
U 1 1 578C11EB
P 3850 2550
F 0 "#PWR084" H 3850 2400 50  0001 C CNN
F 1 "+5V" H 3850 2690 50  0000 C CNN
F 2 "" H 3850 2550 50  0000 C CNN
F 3 "" H 3850 2550 50  0000 C CNN
	1    3850 2550
	1    0    0    -1  
$EndComp
Text Label 4750 3150 0    60   ~ 0
GATED_5V
Text Label 7700 4100 2    60   ~ 0
GATED_5V
Wire Wire Line
	5500 3500 5650 3500
Wire Wire Line
	6250 2850 6200 2850
Wire Wire Line
	3850 3150 5300 3150
Wire Wire Line
	6200 3150 6800 3150
Wire Wire Line
	5300 2850 5300 2850
Wire Wire Line
	5850 3500 6050 3500
Wire Wire Line
	7200 4100 7700 4100
Wire Wire Line
	7200 4300 7300 4300
Wire Wire Line
	7300 4300 7300 4400
Wire Wire Line
	7500 2700 7500 2650
Wire Wire Line
	7500 2650 8100 2650
Wire Wire Line
	7700 2650 7700 2700
Wire Wire Line
	7700 3100 7700 3000
Wire Wire Line
	7500 3100 7500 3000
Wire Wire Line
	3400 2850 3550 2850
Wire Wire Line
	3850 2550 3850 2700
Wire Wire Line
	3800 2650 3850 2650
Connection ~ 3850 2650
Wire Wire Line
	3500 2850 3500 2650
Connection ~ 3500 2850
Wire Wire Line
	6800 3150 6800 3500
Wire Notes Line
	2800 1950 2800 4850
Wire Notes Line
	8300 1950 8300 4850
Wire Wire Line
	3850 3100 3850 3150
Wire Wire Line
	4250 3200 4250 3150
Connection ~ 4250 3150
$Comp
L PWR_FLAG #FLG085
U 1 1 578EA325
P 3850 3150
F 0 "#FLG085" H 3850 3245 50  0001 C CNN
F 1 "PWR_FLAG" H 3850 3330 50  0000 C CNN
F 2 "" H 3850 3150 50  0000 C CNN
F 3 "" H 3850 3150 50  0000 C CNN
	1    3850 3150
	-1   0    0    1   
$EndComp
Text Label 7150 2550 0    60   ~ 0
GATED_5V
Wire Wire Line
	7150 2550 7800 2550
$Comp
L TEST TP18
U 1 1 58B28E88
P 3500 2650
F 0 "TP18" H 3500 2950 50  0000 C BNN
F 1 "TEST" H 3500 2900 50  0000 C CNN
F 2 "Measurement_Points:Measurement_Point_Round-TH_Small" H 3500 2650 50  0001 C CNN
F 3 "" H 3500 2650 50  0000 C CNN
	1    3500 2650
	1    0    0    -1  
$EndComp
$Comp
L TEST TP23
U 1 1 58B28F33
P 4600 3150
F 0 "TP23" H 4600 3450 50  0000 C BNN
F 1 "TEST" H 4600 3400 50  0000 C CNN
F 2 "Measurement_Points:Measurement_Point_Round-TH_Small" H 4600 3150 50  0001 C CNN
F 3 "" H 4600 3150 50  0000 C CNN
	1    4600 3150
	1    0    0    -1  
$EndComp
Connection ~ 4600 3150
$Comp
L TEST TP22
U 1 1 58B293E4
P 3500 4600
F 0 "TP22" H 3500 4900 50  0000 C BNN
F 1 "TEST" H 3500 4850 50  0000 C CNN
F 2 "Measurement_Points:Measurement_Point_Round-TH_Small" H 3500 4600 50  0001 C CNN
F 3 "" H 3500 4600 50  0000 C CNN
	1    3500 4600
	0    1    1    0   
$EndComp
$Comp
L TEST TP21
U 1 1 58B293B0
P 3500 4400
F 0 "TP21" H 3500 4700 50  0000 C BNN
F 1 "TEST" H 3500 4650 50  0000 C CNN
F 2 "Measurement_Points:Measurement_Point_Round-TH_Small" H 3500 4400 50  0001 C CNN
F 3 "" H 3500 4400 50  0000 C CNN
	1    3500 4400
	0    1    1    0   
$EndComp
$Comp
L TEST TP20
U 1 1 58B2933A
P 3500 4200
F 0 "TP20" H 3500 4500 50  0000 C BNN
F 1 "TEST" H 3500 4450 50  0000 C CNN
F 2 "Measurement_Points:Measurement_Point_Round-TH_Small" H 3500 4200 50  0001 C CNN
F 3 "" H 3500 4200 50  0000 C CNN
	1    3500 4200
	0    1    1    0   
$EndComp
$Comp
L TEST TP19
U 1 1 58B292AC
P 3500 4000
F 0 "TP19" H 3500 4300 50  0000 C BNN
F 1 "TEST" H 3500 4250 50  0000 C CNN
F 2 "Measurement_Points:Measurement_Point_Round-TH_Small" H 3500 4000 50  0001 C CNN
F 3 "" H 3500 4000 50  0000 C CNN
	1    3500 4000
	0    1    1    0   
$EndComp
Text HLabel 3500 4600 0    60   BiDi ~ 0
UNUSED_2
Text HLabel 3500 4000 0    60   BiDi ~ 0
PS2_CLOCK
Text HLabel 3500 4400 0    60   BiDi ~ 0
UNUSED_1
Text HLabel 3500 4200 0    60   BiDi ~ 0
PS2_DATA
Wire Notes Line
	8300 4850 2800 4850
$Comp
L GND #PWR086
U 1 1 58B31AEC
P 4200 4400
F 0 "#PWR086" H 4200 4150 50  0001 C CNN
F 1 "GND" H 4200 4250 50  0000 C CNN
F 2 "" H 4200 4400 50  0000 C CNN
F 3 "" H 4200 4400 50  0000 C CNN
	1    4200 4400
	1    0    0    -1  
$EndComp
$Comp
L TEST TP34
U 1 1 58B31B41
P 4200 4400
F 0 "TP34" H 4200 4700 50  0000 C BNN
F 1 "TEST" H 4200 4650 50  0000 C CNN
F 2 "Measurement_Points:Measurement_Point_Round-TH_Small" H 4200 4400 50  0001 C CNN
F 3 "" H 4200 4400 50  0000 C CNN
	1    4200 4400
	1    0    0    -1  
$EndComp
Text Notes 5300 4800 0    60   ~ 0
2 pin variant can be used but UNUSED_{1,2} \nwill get connected PS2_{DATA,CLOCK}
Wire Notes Line
	2800 1950 8300 1950
Text Notes 2850 3750 0    60   ~ 0
[pin compatible]\nSSM3J328R, NTR2101PT1G, \nSI2323DS-T1-E3, FDN340P\nAO3415, AO3401, NCE3407A
$Comp
L R R34
U 1 1 58C8FB34
P 7900 2850
F 0 "R34" V 7980 2850 50  0000 C CNN
F 1 "NP" V 7900 2850 50  0000 C CNN
F 2 "Resistors_SMD:R_0603" V 7830 2850 50  0001 C CNN
F 3 "" H 7900 2850 50  0000 C CNN
	1    7900 2850
	1    0    0    -1  
$EndComp
$Comp
L R R35
U 1 1 58C8FB3A
P 8100 2850
F 0 "R35" V 8180 2850 50  0000 C CNN
F 1 "NP" V 8100 2850 50  0000 C CNN
F 2 "Resistors_SMD:R_0603" V 8030 2850 50  0001 C CNN
F 3 "" H 8100 2850 50  0000 C CNN
	1    8100 2850
	1    0    0    -1  
$EndComp
Text HLabel 7900 3100 3    60   BiDi ~ 0
UNUSED_1
Text HLabel 8100 3100 3    60   BiDi ~ 0
UNUSED_2
Wire Wire Line
	8100 3100 8100 3000
Wire Wire Line
	7900 3100 7900 3000
Wire Wire Line
	7900 2650 7900 2700
Wire Wire Line
	8100 2650 8100 2700
Connection ~ 7900 2650
Connection ~ 7700 2650
Wire Wire Line
	7800 2550 7800 2650
Connection ~ 7800 2650
Wire Notes Line
	2800 3850 8300 3850
Text Notes 8050 3650 1    60   ~ 0
Future pull-up
Text GLabel 5750 2550 2    60   BiDi ~ 0
SHLD
$Comp
L GND #PWR087
U 1 1 58ED3A10
P 4600 3500
F 0 "#PWR087" H 4600 3250 50  0001 C CNN
F 1 "GND" H 4600 3350 50  0000 C CNN
F 2 "" H 4600 3500 50  0000 C CNN
F 3 "" H 4600 3500 50  0000 C CNN
	1    4600 3500
	1    0    0    -1  
$EndComp
$Comp
L C C42
U 1 1 58ED3A7B
P 4600 3350
F 0 "C42" H 4625 3450 50  0000 L CNN
F 1 "100nF" H 4625 3250 50  0000 L CNN
F 2 "Capacitors_SMD:C_0603" H 4638 3200 50  0001 C CNN
F 3 "" H 4600 3350 50  0000 C CNN
	1    4600 3350
	1    0    0    -1  
$EndComp
Wire Wire Line
	4600 3200 4600 3150
$EndSCHEMATC
