EESchema Schematic File Version 2
LIBS:power
LIBS:device
LIBS:transistors
LIBS:conn
LIBS:linear
LIBS:regul
LIBS:74xx
LIBS:cmos4000
LIBS:adc-dac
LIBS:memory
LIBS:xilinx
LIBS:microcontrollers
LIBS:dsp
LIBS:microchip
LIBS:analog_switches
LIBS:motorola
LIBS:texas
LIBS:intel
LIBS:audio
LIBS:interface
LIBS:digital-audio
LIBS:philips
LIBS:display
LIBS:cypress
LIBS:siliconi
LIBS:opto
LIBS:atmel
LIBS:contrib
LIBS:valves
LIBS:XPT2046
LIBS:NCS2211
LIBS:SSM3J328RLF
LIBS:IP4220CZ6
LIBS:LD3985M3xR
LIBS:RT9728Bx
LIBS:DIN_6
LIBS:5INCH_DPI_LCD
LIBS:RT4533
LIBS:STM32F767VxTx
LIBS:switches
LIBS:Mounting_Hole
LIBS:diy-vt100-cache
EELAYER 25 0
EELAYER END
$Descr A4 11693 8268
encoding utf-8
Sheet 2 11
Title "diy-VT100"
Date ""
Rev "0.4"
Comp "Mad Resistor"
Comment1 "https://www.madresistor.com/diy-vt100"
Comment2 "Copyright (C) 2016, 2017 Mad Resistor"
Comment3 ""
Comment4 ""
$EndDescr
$Comp
L Speaker LS1
U 1 1 58B13CBF
P 8750 3050
F 0 "LS1" H 8800 3275 50  0000 R CNN
F 1 "Speaker" H 8800 3200 50  0000 R CNN
F 2 "custom:CONNECT_PAD-2" H 8750 2850 50  0001 C CNN
F 3 "" H 8740 3000 50  0000 C CNN
	1    8750 3050
	1    0    0    -1  
$EndComp
Wire Wire Line
	5900 3250 5800 3250
$Comp
L +5V #PWR01
U 1 1 58B13D88
P 6650 1950
F 0 "#PWR01" H 6650 1800 50  0001 C CNN
F 1 "+5V" H 6650 2090 50  0000 C CNN
F 2 "" H 6650 1950 50  0000 C CNN
F 3 "" H 6650 1950 50  0000 C CNN
	1    6650 1950
	1    0    0    -1  
$EndComp
$Comp
L C C18
U 1 1 58B13E85
P 6850 2100
F 0 "C18" H 6875 2200 50  0000 L CNN
F 1 "100nF" H 6875 2000 50  0000 L CNN
F 2 "Capacitors_SMD:C_0603" H 6888 1950 50  0001 C CNN
F 3 "" H 6850 2100 50  0000 C CNN
	1    6850 2100
	1    0    0    -1  
$EndComp
$Comp
L GND #PWR02
U 1 1 58B13ED9
P 6850 2250
F 0 "#PWR02" H 6850 2000 50  0001 C CNN
F 1 "GND" H 6850 2100 50  0000 C CNN
F 2 "" H 6850 2250 50  0000 C CNN
F 3 "" H 6850 2250 50  0000 C CNN
	1    6850 2250
	1    0    0    -1  
$EndComp
Wire Wire Line
	6650 2350 6650 1950
Wire Wire Line
	6650 1950 7450 1950
Wire Wire Line
	7400 3050 8550 3050
Wire Wire Line
	7400 3150 8550 3150
Wire Wire Line
	5900 3050 5550 3050
Wire Wire Line
	5550 3050 5550 3550
$Comp
L C C17
U 1 1 58B141CD
P 5550 3700
F 0 "C17" H 5575 3800 50  0000 L CNN
F 1 "100nF" H 5575 3600 50  0000 L CNN
F 2 "Capacitors_SMD:C_0603" H 5588 3550 50  0001 C CNN
F 3 "" H 5550 3700 50  0000 C CNN
	1    5550 3700
	1    0    0    -1  
$EndComp
$Comp
L GND #PWR03
U 1 1 58B141F8
P 5550 3850
F 0 "#PWR03" H 5550 3600 50  0001 C CNN
F 1 "GND" H 5550 3700 50  0000 C CNN
F 2 "" H 5550 3850 50  0000 C CNN
F 3 "" H 5550 3850 50  0000 C CNN
	1    5550 3850
	1    0    0    -1  
$EndComp
Wire Wire Line
	5900 3150 5550 3150
Connection ~ 5550 3150
Wire Wire Line
	5800 2950 5900 2950
$Comp
L GND #PWR04
U 1 1 58B14635
P 6650 3850
F 0 "#PWR04" H 6650 3600 50  0001 C CNN
F 1 "GND" H 6650 3700 50  0000 C CNN
F 2 "" H 6650 3850 50  0000 C CNN
F 3 "" H 6650 3850 50  0000 C CNN
	1    6650 3850
	1    0    0    -1  
$EndComp
$Comp
L R R6
U 1 1 58B14856
P 5650 2950
F 0 "R6" V 5730 2950 50  0000 C CNN
F 1 "20K" V 5650 2950 50  0000 C CNN
F 2 "Resistors_SMD:R_0603" V 5580 2950 50  0001 C CNN
F 3 "" H 5650 2950 50  0000 C CNN
	1    5650 2950
	0    -1   -1   0   
$EndComp
$Comp
L C C16
U 1 1 58B14906
P 5300 2950
F 0 "C16" H 5325 3050 50  0000 L CNN
F 1 "100nF" H 5325 2850 50  0000 L CNN
F 2 "Capacitors_SMD:C_0603" H 5338 2800 50  0001 C CNN
F 3 "" H 5300 2950 50  0000 C CNN
	1    5300 2950
	0    1    1    0   
$EndComp
Wire Wire Line
	5500 2950 5450 2950
Wire Wire Line
	5150 2950 5000 2950
$Comp
L NCS2211 U2
U 1 1 58B14AFF
P 6650 3100
F 0 "U2" H 6650 3000 50  0000 C CNN
F 1 "NCS2211DR2G" H 6650 3300 50  0000 C CNN
F 2 "Housings_SOIC:SOIC-8_3.9x4.9mm_Pitch1.27mm" H 6650 3100 50  0001 C CNN
F 3 "DOCUMENTATION" H 6650 3100 50  0001 C CNN
	1    6650 3100
	1    0    0    -1  
$EndComp
Wire Wire Line
	5850 2950 5850 2600
Wire Wire Line
	5850 2600 7700 2600
Connection ~ 5850 2950
$Comp
L R R7
U 1 1 58B15065
P 7450 2750
F 0 "R7" V 7530 2750 50  0000 C CNN
F 1 "20K" V 7450 2750 50  0000 C CNN
F 2 "Resistors_SMD:R_0603" V 7380 2750 50  0001 C CNN
F 3 "" H 7450 2750 50  0000 C CNN
	1    7450 2750
	1    0    0    -1  
$EndComp
Wire Wire Line
	7450 2900 7450 3050
Connection ~ 7450 3050
Text Notes 5550 4550 0    60   ~ 0
Compatible parts list (atleast functional - footprint varies)\nNCS2211, LM4871MX, LM4890, TS4990ID\n\n[pin incompatible]\nMD8002A, TPA6211A1
$Comp
L R R5
U 1 1 58AF9D56
P 2650 3200
F 0 "R5" V 2730 3200 50  0000 C CNN
F 1 "10K" V 2650 3200 50  0000 C CNN
F 2 "Resistors_SMD:R_0603" V 2580 3200 50  0001 C CNN
F 3 "" H 2650 3200 50  0000 C CNN
	1    2650 3200
	1    0    0    -1  
$EndComp
Wire Wire Line
	2650 3350 2650 3450
Wire Wire Line
	2650 3050 2650 3000
$Comp
L +5V #PWR05
U 1 1 58AFA1AD
P 2650 3000
F 0 "#PWR05" H 2650 2850 50  0001 C CNN
F 1 "+5V" H 2650 3140 50  0000 C CNN
F 2 "" H 2650 3000 50  0000 C CNN
F 3 "" H 2650 3000 50  0000 C CNN
	1    2650 3000
	1    0    0    -1  
$EndComp
Text HLabel 5000 2950 0    60   Input ~ 0
SIGNAL
Text HLabel 2650 3450 3    60   Input ~ 0
~EN
Text HLabel 5800 3250 0    60   Input ~ 0
~EN
Text Notes 2000 3900 0    60   ~ 0
Keep the IC disable by default.\nNote: EN pin should be 5V tolerant
$Comp
L C C19
U 1 1 58B3B161
P 7150 2100
F 0 "C19" H 7175 2200 50  0000 L CNN
F 1 "10uF" H 7175 2000 50  0000 L CNN
F 2 "Capacitors_SMD:C_0805" H 7188 1950 50  0001 C CNN
F 3 "" H 7150 2100 50  0000 C CNN
	1    7150 2100
	1    0    0    -1  
$EndComp
Connection ~ 6850 1950
$Comp
L GND #PWR06
U 1 1 58B3B1B3
P 7150 2250
F 0 "#PWR06" H 7150 2000 50  0001 C CNN
F 1 "GND" H 7150 2100 50  0000 C CNN
F 2 "" H 7150 2250 50  0000 C CNN
F 3 "" H 7150 2250 50  0000 C CNN
	1    7150 2250
	1    0    0    -1  
$EndComp
$Comp
L TEST TP1
U 1 1 58B25AC7
P 5850 2600
F 0 "TP1" H 5850 2900 50  0000 C BNN
F 1 "TEST" H 5850 2850 50  0000 C CNN
F 2 "Measurement_Points:Measurement_Point_Round-TH_Small" H 5850 2600 50  0001 C CNN
F 3 "" H 5850 2600 50  0000 C CNN
	1    5850 2600
	1    0    0    -1  
$EndComp
$Comp
L TEST TP28
U 1 1 58B304EA
P 8350 2250
F 0 "TP28" H 8350 2550 50  0000 C BNN
F 1 "TEST" H 8350 2500 50  0000 C CNN
F 2 "Measurement_Points:Measurement_Point_Round-TH_Small" H 8350 2250 50  0001 C CNN
F 3 "" H 8350 2250 50  0000 C CNN
	1    8350 2250
	1    0    0    -1  
$EndComp
$Comp
L GND #PWR07
U 1 1 58B30590
P 8350 2250
F 0 "#PWR07" H 8350 2000 50  0001 C CNN
F 1 "GND" H 8350 2100 50  0000 C CNN
F 2 "" H 8350 2250 50  0000 C CNN
F 3 "" H 8350 2250 50  0000 C CNN
	1    8350 2250
	1    0    0    -1  
$EndComp
$Comp
L C C35
U 1 1 58C8FFCA
P 7450 2100
F 0 "C35" H 7475 2200 50  0000 L CNN
F 1 "NP" H 7475 2000 50  0000 L CNN
F 2 "Capacitors_SMD:C_0805" H 7488 1950 50  0001 C CNN
F 3 "" H 7450 2100 50  0000 C CNN
	1    7450 2100
	1    0    0    -1  
$EndComp
Connection ~ 7150 1950
$Comp
L GND #PWR08
U 1 1 58C900B6
P 7450 2250
F 0 "#PWR08" H 7450 2000 50  0001 C CNN
F 1 "GND" H 7450 2100 50  0000 C CNN
F 2 "" H 7450 2250 50  0000 C CNN
F 3 "" H 7450 2250 50  0000 C CNN
	1    7450 2250
	1    0    0    -1  
$EndComp
$Comp
L TEST TP15
U 1 1 58EF5840
P 8350 3050
F 0 "TP15" H 8350 3350 50  0000 C BNN
F 1 "TEST" H 8350 3300 50  0000 C CNN
F 2 "Measurement_Points:Measurement_Point_Round-TH_Small" H 8350 3050 50  0001 C CNN
F 3 "" H 8350 3050 50  0001 C CNN
	1    8350 3050
	1    0    0    -1  
$EndComp
$Comp
L TEST TP37
U 1 1 58EF5981
P 8350 3150
F 0 "TP37" H 8350 3450 50  0000 C BNN
F 1 "TEST" H 8350 3400 50  0000 C CNN
F 2 "Measurement_Points:Measurement_Point_Round-TH_Small" H 8350 3150 50  0001 C CNN
F 3 "" H 8350 3150 50  0001 C CNN
	1    8350 3150
	-1   0    0    1   
$EndComp
Connection ~ 8350 3050
Connection ~ 8350 3150
$Comp
L C C13
U 1 1 58EF6BC0
P 5300 2700
F 0 "C13" H 5325 2800 50  0000 L CNN
F 1 "NP" H 5325 2600 50  0000 L CNN
F 2 "Capacitors_SMD:C_0603" H 5338 2550 50  0001 C CNN
F 3 "" H 5300 2700 50  0000 C CNN
	1    5300 2700
	0    1    -1   0   
$EndComp
Wire Wire Line
	5150 2950 5150 2700
Wire Wire Line
	5450 2950 5450 2700
$Comp
L C C38
U 1 1 58EF7ABE
P 7700 2750
F 0 "C38" H 7725 2850 50  0000 L CNN
F 1 "NP" H 7725 2650 50  0000 L CNN
F 2 "Capacitors_SMD:C_0603" H 7738 2600 50  0001 C CNN
F 3 "" H 7700 2750 50  0001 C CNN
	1    7700 2750
	1    0    0    -1  
$EndComp
Wire Wire Line
	7450 2900 7700 2900
Connection ~ 7450 2600
Connection ~ 7450 2900
$EndSCHEMATC
