EESchema Schematic File Version 2
LIBS:power
LIBS:device
LIBS:transistors
LIBS:conn
LIBS:linear
LIBS:regul
LIBS:74xx
LIBS:cmos4000
LIBS:adc-dac
LIBS:memory
LIBS:xilinx
LIBS:microcontrollers
LIBS:dsp
LIBS:microchip
LIBS:analog_switches
LIBS:motorola
LIBS:texas
LIBS:intel
LIBS:audio
LIBS:interface
LIBS:digital-audio
LIBS:philips
LIBS:display
LIBS:cypress
LIBS:siliconi
LIBS:opto
LIBS:atmel
LIBS:contrib
LIBS:valves
LIBS:XPT2046
LIBS:NCS2211
LIBS:SSM3J328RLF
LIBS:IP4220CZ6
LIBS:LD3985M3xR
LIBS:RT9728Bx
LIBS:DIN_6
LIBS:5INCH_DPI_LCD
LIBS:RT4533
LIBS:STM32F767VxTx
LIBS:switches
LIBS:Mounting_Hole
LIBS:diy-vt100-cache
EELAYER 25 0
EELAYER END
$Descr A4 11693 8268
encoding utf-8
Sheet 10 11
Title ""
Date ""
Rev ""
Comp ""
Comment1 ""
Comment2 ""
Comment3 ""
Comment4 ""
$EndDescr
Text HLabel 5900 2550 0    60   BiDi ~ 0
DAT2
Text HLabel 5900 2650 0    60   BiDi ~ 0
DAT3
Text HLabel 5900 2750 0    60   Input ~ 0
CMD
Wire Wire Line
	5900 2850 5450 2850
Wire Wire Line
	5450 2850 5450 2400
$Comp
L VDD #PWR0103
U 1 1 58FE9647
P 5450 2400
F 0 "#PWR0103" H 5450 2250 50  0001 C CNN
F 1 "VDD" H 5450 2550 50  0000 C CNN
F 2 "" H 5450 2400 50  0001 C CNN
F 3 "" H 5450 2400 50  0001 C CNN
	1    5450 2400
	1    0    0    -1  
$EndComp
Text HLabel 5900 2950 0    60   Input ~ 0
CLK
Wire Wire Line
	5900 3050 5450 3050
Wire Wire Line
	5450 3050 5450 3600
$Comp
L GND #PWR0104
U 1 1 58FE966C
P 5450 3600
F 0 "#PWR0104" H 5450 3350 50  0001 C CNN
F 1 "GND" H 5450 3450 50  0000 C CNN
F 2 "" H 5450 3600 50  0001 C CNN
F 3 "" H 5450 3600 50  0001 C CNN
	1    5450 3600
	1    0    0    -1  
$EndComp
Text HLabel 5900 3150 0    60   BiDi ~ 0
DAT0
Text HLabel 5900 3250 0    60   BiDi ~ 0
DAT1
Wire Wire Line
	5900 3350 5450 3350
Connection ~ 5450 3350
Text HLabel 5900 3450 0    60   Output ~ 0
DET
Text HLabel 3950 3000 3    60   Output ~ 0
DET
$Comp
L VDD #PWR0105
U 1 1 58FE96B3
P 3950 2600
F 0 "#PWR0105" H 3950 2450 50  0001 C CNN
F 1 "VDD" H 3950 2750 50  0000 C CNN
F 2 "" H 3950 2600 50  0001 C CNN
F 3 "" H 3950 2600 50  0001 C CNN
	1    3950 2600
	1    0    0    -1  
$EndComp
$Comp
L R R38
U 1 1 58FE96C2
P 3950 2800
F 0 "R38" V 4030 2800 50  0000 C CNN
F 1 "10K" V 3950 2800 50  0000 C CNN
F 2 "Resistors_SMD:R_0603" V 3880 2800 50  0001 C CNN
F 3 "" H 3950 2800 50  0001 C CNN
	1    3950 2800
	1    0    0    -1  
$EndComp
Wire Wire Line
	3950 3000 3950 2950
Wire Wire Line
	3950 2650 3950 2600
Text Notes 4200 3200 1    60   ~ 0
Not Populated
Text GLabel 7600 3450 2    60   BiDi ~ 0
SHLD
$Comp
L VDD #PWR0106
U 1 1 58FFF38C
P 4650 2600
F 0 "#PWR0106" H 4650 2450 50  0001 C CNN
F 1 "VDD" H 4650 2750 50  0000 C CNN
F 2 "" H 4650 2600 50  0001 C CNN
F 3 "" H 4650 2600 50  0001 C CNN
	1    4650 2600
	1    0    0    -1  
$EndComp
$Comp
L C C44
U 1 1 58FFF39D
P 4650 2800
F 0 "C44" H 4675 2900 50  0000 L CNN
F 1 "100nF" H 4675 2700 50  0000 L CNN
F 2 "Capacitors_SMD:C_0603" H 4688 2650 50  0001 C CNN
F 3 "" H 4650 2800 50  0001 C CNN
	1    4650 2800
	1    0    0    -1  
$EndComp
Wire Wire Line
	4650 2650 4650 2600
Wire Wire Line
	4650 2950 4650 3050
$Comp
L GND #PWR0107
U 1 1 58FFF432
P 4650 3050
F 0 "#PWR0107" H 4650 2800 50  0001 C CNN
F 1 "GND" H 4650 2900 50  0000 C CNN
F 2 "" H 4650 3050 50  0001 C CNN
F 3 "" H 4650 3050 50  0001 C CNN
	1    4650 3050
	1    0    0    -1  
$EndComp
$Comp
L Micro_SD_Card_Det_Hirose_DM3AT P10
U 1 1 59000C4B
P 6800 2950
F 0 "P10" H 6150 3650 50  0000 C CNN
F 1 "Micro_SD_Card_Det_Hirose_DM3AT" H 7600 3650 50  0000 R CNN
F 2 "Connectors_Hirose:microSD_Card_Receptacle_Hirose_DM3AT-SF-PEJM5" H 8850 3650 50  0001 C CNN
F 3 "" H 6800 3050 50  0001 C CNN
	1    6800 2950
	1    0    0    -1  
$EndComp
$EndSCHEMATC
