EESchema Schematic File Version 2
LIBS:power
LIBS:device
LIBS:transistors
LIBS:conn
LIBS:linear
LIBS:regul
LIBS:74xx
LIBS:cmos4000
LIBS:adc-dac
LIBS:memory
LIBS:xilinx
LIBS:microcontrollers
LIBS:dsp
LIBS:microchip
LIBS:analog_switches
LIBS:motorola
LIBS:texas
LIBS:intel
LIBS:audio
LIBS:interface
LIBS:digital-audio
LIBS:philips
LIBS:display
LIBS:cypress
LIBS:siliconi
LIBS:opto
LIBS:atmel
LIBS:contrib
LIBS:valves
LIBS:XPT2046
LIBS:NCS2211
LIBS:SSM3J328RLF
LIBS:IP4220CZ6
LIBS:LD3985M3xR
LIBS:RT9728Bx
LIBS:DIN_6
LIBS:5INCH_DPI_LCD
LIBS:RT4533
LIBS:STM32F767VxTx
LIBS:switches
LIBS:Mounting_Hole
LIBS:diy-vt100-cache
EELAYER 25 0
EELAYER END
$Descr A4 11693 8268
encoding utf-8
Sheet 3 11
Title "diy-VT100"
Date ""
Rev "0.4"
Comp "Mad Resistor"
Comment1 "https://www.madresistor.com/diy-vt100"
Comment2 "Copyright (C) 2016, 2017 Mad Resistor"
Comment3 ""
Comment4 ""
$EndDescr
$Comp
L GND #PWR09
U 1 1 57655449
P 4600 3800
F 0 "#PWR09" H 4600 3550 50  0001 C CNN
F 1 "GND" H 4650 3650 50  0000 C CNN
F 2 "" H 4600 3800 50  0000 C CNN
F 3 "" H 4600 3800 50  0000 C CNN
	1    4600 3800
	1    0    0    -1  
$EndComp
$Comp
L C C20
U 1 1 57655455
P 6450 3450
F 0 "C20" H 6475 3550 50  0000 L CNN
F 1 "4.7uF" H 6475 3350 50  0000 L CNN
F 2 "Capacitors_SMD:C_0805" H 6488 3300 50  0001 C CNN
F 3 "" H 6450 3450 50  0000 C CNN
	1    6450 3450
	1    0    0    -1  
$EndComp
$Comp
L GND #PWR010
U 1 1 5765545C
P 6450 3700
F 0 "#PWR010" H 6450 3450 50  0001 C CNN
F 1 "GND" H 6450 3550 50  0000 C CNN
F 2 "" H 6450 3700 50  0000 C CNN
F 3 "" H 6450 3700 50  0000 C CNN
	1    6450 3700
	1    0    0    -1  
$EndComp
Text HLabel 5800 3500 2    60   BiDi ~ 0
USB_D-
Text HLabel 5800 3400 2    60   BiDi ~ 0
USB_D+
$Comp
L GND #PWR011
U 1 1 57687290
P 6550 4800
F 0 "#PWR011" H 6550 4550 50  0001 C CNN
F 1 "GND" H 6550 4650 50  0000 C CNN
F 2 "" H 6550 4800 50  0000 C CNN
F 3 "" H 6550 4800 50  0000 C CNN
	1    6550 4800
	1    0    0    -1  
$EndComp
NoConn ~ 4900 4550
NoConn ~ 4900 4750
$Comp
L IP4220CZ6 U3
U 1 1 57691465
P 5650 4600
F 0 "U3" H 5650 4400 50  0000 C CNN
F 1 "IP4220CZ6" H 5650 4800 50  0000 C CNN
F 2 "TO_SOT_Packages_SMD:TSOT-23-6_MK06A" H 5650 4600 50  0001 C CNN
F 3 "DOCUMENTATION" H 5650 4600 50  0001 C CNN
	1    5650 4600
	1    0    0    -1  
$EndComp
$Comp
L R R9
U 1 1 576DB8A0
P 5650 3400
F 0 "R9" V 5730 3400 50  0000 C CNN
F 1 "0" V 5650 3400 50  0000 C CNN
F 2 "Resistors_SMD:R_0603" V 5580 3400 50  0001 C CNN
F 3 "" H 5650 3400 50  0000 C CNN
	1    5650 3400
	0    1    -1   0   
$EndComp
$Comp
L R R8
U 1 1 576DB8E9
P 5650 3500
F 0 "R8" V 5730 3500 50  0000 C CNN
F 1 "0" V 5650 3500 50  0000 C CNN
F 2 "Resistors_SMD:R_0603" V 5580 3500 50  0001 C CNN
F 3 "" H 5650 3500 50  0000 C CNN
	1    5650 3500
	0    1    1    0   
$EndComp
Text Label 5400 3500 2    60   ~ 0
D-
Text Label 5400 3400 2    60   ~ 0
D+
Text Label 4750 4650 0    60   ~ 0
D-
Text Label 4750 4450 0    60   ~ 0
D+
$Comp
L SSM3J328R,LF Q1
U 1 1 578C8347
P 6650 2750
F 0 "Q1" H 6850 2825 50  0000 L CNN
F 1 "SSM3J328R,LF" H 6850 2750 50  0000 L CNN
F 2 "TO_SOT_Packages_SMD:SOT-23" H 6850 2675 50  0001 L CIN
F 3 "" H 6650 2750 50  0000 L CNN
	1    6650 2750
	1    0    0    1   
$EndComp
Text HLabel 6300 2700 0    60   Input ~ 0
~VBUS_EN
$Comp
L R R10
U 1 1 578C8352
P 6550 2500
F 0 "R10" V 6630 2500 50  0000 C CNN
F 1 "10K" V 6550 2500 50  0000 C CNN
F 2 "Resistors_SMD:R_0603" V 6480 2500 50  0001 C CNN
F 3 "" H 6550 2500 50  0000 C CNN
	1    6550 2500
	0    -1   -1   0   
$EndComp
$Comp
L +5V #PWR012
U 1 1 578C835E
P 6750 2400
F 0 "#PWR012" H 6750 2250 50  0001 C CNN
F 1 "+5V" H 6750 2540 50  0000 C CNN
F 2 "" H 6750 2400 50  0000 C CNN
F 3 "" H 6750 2400 50  0000 C CNN
	1    6750 2400
	1    0    0    -1  
$EndComp
Text Label 5400 3200 2    60   ~ 0
GATED_5V
Wire Wire Line
	4900 3400 5500 3400
Wire Wire Line
	4900 3500 5500 3500
Wire Wire Line
	6400 4500 6850 4500
Wire Wire Line
	6450 3700 6450 3600
Wire Wire Line
	6400 4700 6550 4700
Wire Wire Line
	6550 4700 6550 4800
Wire Wire Line
	4900 4650 4750 4650
Wire Wire Line
	4900 4450 4750 4450
Wire Wire Line
	6300 2700 6450 2700
Wire Wire Line
	6750 2400 6750 2550
Wire Wire Line
	6700 2500 6750 2500
Connection ~ 6750 2500
Wire Wire Line
	6400 2700 6400 2500
Connection ~ 6400 2700
Wire Wire Line
	4900 3200 6750 3200
Text Label 6850 4500 2    60   ~ 0
GATED_5V
Wire Notes Line
	4250 2150 4250 5050
Wire Notes Line
	4250 4200 7450 4200
Wire Notes Line
	7450 2150 7450 5050
Wire Notes Line
	7450 2150 4250 2150
Wire Notes Line
	7450 5050 4250 5050
Wire Wire Line
	6450 3300 6450 3200
Connection ~ 6450 3200
Wire Wire Line
	6750 2950 6750 3300
$Comp
L PWR_FLAG #FLG013
U 1 1 578EA6EA
P 6750 3200
F 0 "#FLG013" H 6750 3295 50  0001 C CNN
F 1 "PWR_FLAG" V 6750 3500 50  0000 C CNN
F 2 "" H 6750 3200 50  0000 C CNN
F 3 "" H 6750 3200 50  0000 C CNN
	1    6750 3200
	0    1    1    0   
$EndComp
$Comp
L TEST TP5
U 1 1 58B2761E
P 6450 3200
F 0 "TP5" H 6450 3500 50  0000 C BNN
F 1 "TEST" H 6450 3450 50  0000 C CNN
F 2 "Measurement_Points:Measurement_Point_Round-TH_Small" H 6450 3200 50  0001 C CNN
F 3 "" H 6450 3200 50  0000 C CNN
	1    6450 3200
	1    0    0    -1  
$EndComp
$Comp
L TEST TP4
U 1 1 58B279A1
P 6400 2500
F 0 "TP4" H 6400 2800 50  0000 C BNN
F 1 "TEST" H 6400 2750 50  0000 C CNN
F 2 "Measurement_Points:Measurement_Point_Round-TH_Small" H 6400 2500 50  0001 C CNN
F 3 "" H 6400 2500 50  0000 C CNN
	1    6400 2500
	0    -1   -1   0   
$EndComp
Text HLabel 4850 2400 0    60   BiDi ~ 0
USB_D-
Text HLabel 4850 2600 0    60   BiDi ~ 0
USB_D+
$Comp
L TEST TP2
U 1 1 58B29D7F
P 4850 2400
F 0 "TP2" H 4850 2700 50  0000 C BNN
F 1 "TEST" H 4850 2650 50  0000 C CNN
F 2 "Measurement_Points:Measurement_Point_Round-TH_Small" H 4850 2400 50  0001 C CNN
F 3 "" H 4850 2400 50  0000 C CNN
	1    4850 2400
	0    1    1    0   
$EndComp
$Comp
L TEST TP3
U 1 1 58B29DE6
P 4850 2600
F 0 "TP3" H 4850 2900 50  0000 C BNN
F 1 "TEST" H 4850 2850 50  0000 C CNN
F 2 "Measurement_Points:Measurement_Point_Round-TH_Small" H 4850 2600 50  0001 C CNN
F 3 "" H 4850 2600 50  0000 C CNN
	1    4850 2600
	0    1    1    0   
$EndComp
$Comp
L GND #PWR014
U 1 1 58B30D80
P 5400 2700
F 0 "#PWR014" H 5400 2450 50  0001 C CNN
F 1 "GND" H 5400 2550 50  0000 C CNN
F 2 "" H 5400 2700 50  0000 C CNN
F 3 "" H 5400 2700 50  0000 C CNN
	1    5400 2700
	1    0    0    -1  
$EndComp
$Comp
L TEST TP29
U 1 1 58B30DFF
P 5400 2700
F 0 "TP29" H 5400 3000 50  0000 C BNN
F 1 "TEST" H 5400 2950 50  0000 C CNN
F 2 "Measurement_Points:Measurement_Point_Round-TH_Small" H 5400 2700 50  0001 C CNN
F 3 "" H 5400 2700 50  0000 C CNN
	1    5400 2700
	1    0    0    -1  
$EndComp
Text Notes 5100 5000 0    60   ~ 0
2 pin variant can be used
$Comp
L USB_A P4
U 1 1 58C71148
P 4600 3400
F 0 "P4" H 4400 3850 50  0000 L CNN
F 1 "USB_A" H 4400 3750 50  0000 L CNN
F 2 "Connectors:USB_A" H 4750 3350 50  0001 C CNN
F 3 "" H 4750 3350 50  0001 C CNN
	1    4600 3400
	1    0    0    -1  
$EndComp
Text GLabel 4500 3850 3    60   BiDi ~ 0
SHLD
Wire Wire Line
	4500 3850 4500 3800
$Comp
L C C40
U 1 1 58ED4B00
P 6750 3450
F 0 "C40" H 6775 3550 50  0000 L CNN
F 1 "100nF" H 6775 3350 50  0000 L CNN
F 2 "Capacitors_SMD:C_0603" H 6788 3300 50  0001 C CNN
F 3 "" H 6750 3450 50  0000 C CNN
	1    6750 3450
	1    0    0    -1  
$EndComp
$Comp
L GND #PWR015
U 1 1 58ED5B57
P 6750 3700
F 0 "#PWR015" H 6750 3450 50  0001 C CNN
F 1 "GND" H 6750 3550 50  0000 C CNN
F 2 "" H 6750 3700 50  0000 C CNN
F 3 "" H 6750 3700 50  0000 C CNN
	1    6750 3700
	1    0    0    -1  
$EndComp
Connection ~ 6750 3200
Wire Wire Line
	6750 3700 6750 3600
$EndSCHEMATC
