G04 #@! TF.FileFunction,Paste,Top*
%FSLAX46Y46*%
G04 Gerber Fmt 4.6, Leading zero omitted, Abs format (unit mm)*
G04 Created by KiCad (PCBNEW 4.0.6) date Thu Aug 24 05:05:02 2017*
%MOMM*%
%LPD*%
G01*
G04 APERTURE LIST*
%ADD10C,0.100000*%
%ADD11R,0.800000X0.800000*%
%ADD12R,0.350000X3.540000*%
G04 APERTURE END LIST*
D10*
D11*
X163550000Y-139729998D03*
X161950000Y-139729998D03*
X163550000Y-136644973D03*
X161950000Y-136644973D03*
X163550000Y-133676236D03*
X161950000Y-133676236D03*
X163550000Y-130767499D03*
X161950000Y-130767499D03*
X163550000Y-127823762D03*
X161950000Y-127823762D03*
X163550000Y-124770025D03*
X161950000Y-124770025D03*
X163550000Y-121812576D03*
X161950000Y-121812576D03*
D12*
X69695000Y-94770000D03*
X68695000Y-94770000D03*
X69195000Y-94770000D03*
X68195000Y-94770000D03*
X67695000Y-94770000D03*
X67195000Y-94770000D03*
X66695000Y-94770000D03*
X72195000Y-94770000D03*
X71695000Y-94770000D03*
X71195000Y-94770000D03*
X70695000Y-94770000D03*
X70195000Y-94770000D03*
X66195000Y-94770000D03*
X65695000Y-94770000D03*
X65195000Y-94770000D03*
X64695000Y-94770000D03*
X73195000Y-94770000D03*
X73695000Y-94770000D03*
X74195000Y-94770000D03*
X72695000Y-94770000D03*
X81695000Y-94770000D03*
X79695000Y-94770000D03*
X79195000Y-94770000D03*
X81195000Y-94770000D03*
X80195000Y-94770000D03*
X80695000Y-94770000D03*
X78695000Y-94770000D03*
X76695000Y-94770000D03*
X77195000Y-94770000D03*
X77695000Y-94770000D03*
X78195000Y-94770000D03*
X82195000Y-94770000D03*
X82695000Y-94770000D03*
X83195000Y-94770000D03*
X83695000Y-94770000D03*
X84195000Y-94770000D03*
X74695000Y-94770000D03*
X76195000Y-94770000D03*
X75695000Y-94770000D03*
X75195000Y-94770000D03*
M02*
