(module custom:DIN_Mini_6P (layer F.Cu) (tedit 58ECCFD2)
  (descr http://www.te.com/commerce/DocumentDelivery/DDEController?Action=showdoc&DocId=Customer+Drawing%7F5749180%7FA1%7Fpdf%7FEnglish%7FENG_CD_5749180_A1.pdf%7F5749180-1)
  (tags PS2)
  (fp_text reference P7 (at -0.05 1.69 270) (layer B.SilkS)
    (effects (font (size 0.8 0.8) (thickness 0.12)) (justify mirror))
  )
  (fp_text value DIN_6 (at 0.003204 1.57138) (layer F.Fab)
    (effects (font (size 0.8 0.8) (thickness 0.12)))
  )
  (fp_line (start 6.76 8) (end 6.76 12.83) (layer F.SilkS) (width 0.15))
  (fp_line (start -6.76 12.83) (end 6.76 12.83) (layer F.SilkS) (width 0.15))
  (fp_line (start -6.76 8) (end -6.76 12.83) (layer F.SilkS) (width 0.15))
  (fp_line (start -6.76 0) (end 6.76 0) (layer F.CrtYd) (width 0.05))
  (fp_line (start 6.76 12.83) (end 6.76 0) (layer F.CrtYd) (width 0.05))
  (fp_line (start -6.76 12.83) (end -6.76 0) (layer F.CrtYd) (width 0.05))
  (pad 0 thru_hole circle (at -6.76 5.51) (size 3.2 3.2) (drill 2.5) (layers *.Cu *.Mask F.SilkS))
  (pad 2 thru_hole circle (at 1.3 8.5) (size 1.7 1.7) (drill 1) (layers *.Cu *.Mask F.SilkS))
  (pad 4 thru_hole circle (at 3.35 8.5) (size 1.7 1.7) (drill 1) (layers *.Cu *.Mask F.SilkS))
  (pad 1 thru_hole circle (at -1.3 8.5) (size 1.7 1.7) (drill 1) (layers *.Cu *.Mask F.SilkS))
  (pad 3 thru_hole circle (at -3.35 8.5) (size 1.7 1.7) (drill 1) (layers *.Cu *.Mask F.SilkS))
  (pad 6 thru_hole circle (at 3.35 11) (size 1.7 1.7) (drill 1) (layers *.Cu *.Mask F.SilkS))
  (pad 5 thru_hole circle (at -3.35 11) (size 1.7 1.7) (drill 1) (layers *.Cu *.Mask F.SilkS))
  (pad 0 thru_hole circle (at 0 4.7) (size 3.2 3.2) (drill 2.5) (layers *.Cu *.Mask F.SilkS))
  (pad 0 thru_hole circle (at 6.76 5.51) (size 3.2 3.2) (drill 2.5) (layers *.Cu *.Mask F.SilkS))
  (model Connect.3dshapes/DIN_Mini_6P.wrl
    (at (xyz 0 -0 0))
    (scale (xyz 1 1 1))
    (rotate (xyz 0 0 0))
  )
  (model ${KIPRJMOD}/lib/custom.3dshapes/DIN_Mini_6P.wrl
    (at (xyz 0 0 0))
    (scale (xyz 1 1 1))
    (rotate (xyz 0 0 0))
  )
)
