(module custom:MountingHole_3.5mm_Single_Pad (layer F.Cu) (tedit 59873636)
  (descr "Mounting Hole 3.5mm")
  (tags "mounting hole 3.5mm")
  (fp_text reference H1 (at 0 -4.5) (layer F.SilkS)
    (effects (font (size 1 1) (thickness 0.15)))
  )
  (fp_text value Mounting_Hole (at 0 4.5) (layer F.Fab)
    (effects (font (size 1 1) (thickness 0.15)))
  )
  (fp_circle (center 0 0) (end 3.5 0) (layer Cmts.User) (width 0.15))
  (fp_circle (center 0 0) (end 3.75 0) (layer F.CrtYd) (width 0.05))
  (pad 1 thru_hole circle (at 0 0) (size 7 7) (drill 3.5) (layers F.Cu F.Mask))
)
